examples/spinalhdl/counter/counter.vcd
$version Generated by VerilatedVcd $end
$timescale 1ns $end
 $scope module TOP $end
  $var wire 1 # io_enable $end
  $var wire 8 $ io_count [7:0] $end
  $var wire 1 % io_overflow $end
  $var wire 1 & clk $end
  $var wire 1 ' reset $end
  $scope module Counter $end
   $var wire 1 # io_enable $end
   $var wire 8 $ io_count [7:0] $end
   $var wire 1 % io_overflow $end
   $var wire 1 & clk $end
   $var wire 1 ' reset $end
   $var wire 8 ( counterReg [7:0] $end
   $var wire 1 ) overflowReg $end
   $var wire 1 * when_Counter_l24 $end
  $upscope $end
 $upscope $end
$enddefinitions $end


#0
0#
b00000000 $
0%
1&
1'
b00000000 (
0)
0*
#5
0&
#10
1&
#15
0&
#20
1&
#25
0&
#30
1&
#35
0&
#40
1&
#45
0&
#50
1&
#55
0&
#60
1&
#65
0&
#70
1&
#75
0&
#80
1&
#85
0&
#90
1&
#95
0&
#100
1&
#105
0&
#110
1&
#115
0&
#120
1&
#125
0&
#130
1&
#135
0&
#140
1&
#145
0&
#150
1&
#155
0&
#160
1&
#165
0&
0'
#170
1&
#175
0&
#180
1&
#185
0&
#190
1&
#195
0&
#200
1&
#205
0&
#210
1#
1&
#215
0&
#220
b00000001 $
1&
b00000001 (
#225
0&
#230
b00000010 $
1&
b00000010 (
#235
0&
#240
b00000011 $
1&
b00000011 (
#245
0&
#250
b00000100 $
1&
b00000100 (
#255
0&
#260
b00000101 $
1&
b00000101 (
#265
0&
#270
b00000110 $
1&
b00000110 (
#275
0&
#280
b00000111 $
1&
b00000111 (
#285
0&
#290
b00001000 $
1&
b00001000 (
#295
0&
#300
b00001001 $
1&
b00001001 (
#305
0&
#310
b00001010 $
1&
b00001010 (
#315
0&
#320
b00001011 $
1&
b00001011 (
#325
0&
#330
b00001100 $
1&
b00001100 (
#335
0&
#340
b00001101 $
1&
b00001101 (
#345
0&
#350
b00001110 $
1&
b00001110 (
#355
0&
#360
b00001111 $
1&
b00001111 (
#365
0&
#370
b00010000 $
1&
b00010000 (
#375
0&
#380
b00010001 $
1&
b00010001 (
#385
0&
#390
b00010010 $
1&
b00010010 (
#395
0&
#400
b00010011 $
1&
b00010011 (
#405
0&
#410
0#
b00010100 $
1&
b00010100 (
#415
0&
#420
1&
#425
0&
#430
1&
#435
0&
#440
1&
#445
0&
#450
1&
#455
0&
#460
1#
1&
#465
0&
#470
b00010101 $
1&
b00010101 (
#475
0&
#480
b00010110 $
1&
b00010110 (
#485
0&
#490
b00010111 $
1&
b00010111 (
#495
0&
#500
b00011000 $
1&
b00011000 (
#505
0&
#510
b00011001 $
1&
b00011001 (
#515
0&
#520
b00011010 $
1&
b00011010 (
#525
0&
#530
b00011011 $
1&
b00011011 (
#535
0&
#540
b00011100 $
1&
b00011100 (
#545
0&
#550
b00011101 $
1&
b00011101 (
#555
0&
#560
b00011110 $
1&
b00011110 (
#565
0&
#570
b00011111 $
1&
b00011111 (
#575
0&
#580
b00100000 $
1&
b00100000 (
#585
0&
#590
b00100001 $
1&
b00100001 (
#595
0&
#600
b00100010 $
1&
b00100010 (
#605
0&
#610
b00100011 $
1&
b00100011 (
#615
0&
#620
b00100100 $
1&
b00100100 (
#625
0&
#630
b00100101 $
1&
b00100101 (
#635
0&
#640
b00100110 $
1&
b00100110 (
#645
0&
#650
b00100111 $
1&
b00100111 (
#655
0&
#660
b00101000 $
1&
b00101000 (
#665
0&
#670
b00101001 $
1&
b00101001 (
#675
0&
#680
b00101010 $
1&
b00101010 (
#685
0&
#690
b00101011 $
1&
b00101011 (
#695
0&
#700
b00101100 $
1&
b00101100 (
#705
0&
#710
b00101101 $
1&
b00101101 (
#715
0&
#720
b00101110 $
1&
b00101110 (
#725
0&
#730
b00101111 $
1&
b00101111 (
#735
0&
#740
b00110000 $
1&
b00110000 (
#745
0&
#750
b00110001 $
1&
b00110001 (
#755
0&
#760
b00110010 $
1&
b00110010 (
#765
0&
#770
b00110011 $
1&
b00110011 (
#775
0&
#780
b00110100 $
1&
b00110100 (
#785
0&
#790
b00110101 $
1&
b00110101 (
#795
0&
#800
b00110110 $
1&
b00110110 (
#805
0&
#810
b00110111 $
1&
b00110111 (
#815
0&
#820
b00111000 $
1&
b00111000 (
#825
0&
#830
b00111001 $
1&
b00111001 (
#835
0&
#840
b00111010 $
1&
b00111010 (
#845
0&
#850
b00111011 $
1&
b00111011 (
#855
0&
#860
b00111100 $
1&
b00111100 (
#865
0&
#870
b00111101 $
1&
b00111101 (
#875
0&
#880
b00111110 $
1&
b00111110 (
#885
0&
#890
b00111111 $
1&
b00111111 (
#895
0&
#900
b01000000 $
1&
b01000000 (
#905
0&
#910
b01000001 $
1&
b01000001 (
#915
0&
#920
b01000010 $
1&
b01000010 (
#925
0&
#930
b01000011 $
1&
b01000011 (
#935
0&
#940
b01000100 $
1&
b01000100 (
#945
0&
#950
b01000101 $
1&
b01000101 (
#955
0&
#960
b01000110 $
1&
b01000110 (
#965
0&
#970
b01000111 $
1&
b01000111 (
#975
0&
#980
b01001000 $
1&
b01001000 (
#985
0&
#990
b01001001 $
1&
b01001001 (
#995
0&
#1000
b01001010 $
1&
b01001010 (
#1005
0&
#1010
b01001011 $
1&
b01001011 (
#1015
0&
#1020
b01001100 $
1&
b01001100 (
#1025
0&
#1030
b01001101 $
1&
b01001101 (
#1035
0&
#1040
b01001110 $
1&
b01001110 (
#1045
0&
#1050
b01001111 $
1&
b01001111 (
#1055
0&
#1060
b01010000 $
1&
b01010000 (
#1065
0&
#1070
b01010001 $
1&
b01010001 (
#1075
0&
#1080
b01010010 $
1&
b01010010 (
#1085
0&
#1090
b01010011 $
1&
b01010011 (
#1095
0&
#1100
b01010100 $
1&
b01010100 (
#1105
0&
#1110
b01010101 $
1&
b01010101 (
#1115
0&
#1120
b01010110 $
1&
b01010110 (
#1125
0&
#1130
b01010111 $
1&
b01010111 (
#1135
0&
#1140
b01011000 $
1&
b01011000 (
#1145
0&
#1150
b01011001 $
1&
b01011001 (
#1155
0&
#1160
b01011010 $
1&
b01011010 (
#1165
0&
#1170
b01011011 $
1&
b01011011 (
#1175
0&
#1180
b01011100 $
1&
b01011100 (
#1185
0&
#1190
b01011101 $
1&
b01011101 (
#1195
0&
#1200
b01011110 $
1&
b01011110 (
#1205
0&
#1210
b01011111 $
1&
b01011111 (
#1215
0&
#1220
b01100000 $
1&
b01100000 (
#1225
0&
#1230
b01100001 $
1&
b01100001 (
#1235
0&
#1240
b01100010 $
1&
b01100010 (
#1245
0&
#1250
b01100011 $
1&
b01100011 (
#1255
0&
#1260
b01100100 $
1&
b01100100 (
#1265
0&
#1270
b01100101 $
1&
b01100101 (
#1275
0&
#1280
b01100110 $
1&
b01100110 (
#1285
0&
#1290
b01100111 $
1&
b01100111 (
#1295
0&
#1300
b01101000 $
1&
b01101000 (
#1305
0&
#1310
b01101001 $
1&
b01101001 (
#1315
0&
#1320
b01101010 $
1&
b01101010 (
#1325
0&
#1330
b01101011 $
1&
b01101011 (
#1335
0&
#1340
b01101100 $
1&
b01101100 (
#1345
0&
#1350
b01101101 $
1&
b01101101 (
#1355
0&
#1360
b01101110 $
1&
b01101110 (
#1365
0&
#1370
b01101111 $
1&
b01101111 (
#1375
0&
#1380
b01110000 $
1&
b01110000 (
#1385
0&
#1390
b01110001 $
1&
b01110001 (
#1395
0&
#1400
b01110010 $
1&
b01110010 (
#1405
0&
#1410
b01110011 $
1&
b01110011 (
#1415
0&
#1420
b01110100 $
1&
b01110100 (
#1425
0&
#1430
b01110101 $
1&
b01110101 (
#1435
0&
#1440
b01110110 $
1&
b01110110 (
#1445
0&
#1450
b01110111 $
1&
b01110111 (
#1455
0&
#1460
b01111000 $
1&
b01111000 (
#1465
0&
#1470
b01111001 $
1&
b01111001 (
#1475
0&
#1480
b01111010 $
1&
b01111010 (
#1485
0&
#1490
b01111011 $
1&
b01111011 (
#1495
0&
#1500
b01111100 $
1&
b01111100 (
#1505
0&
#1510
b01111101 $
1&
b01111101 (
#1515
0&
#1520
b01111110 $
1&
b01111110 (
#1525
0&
#1530
b01111111 $
1&
b01111111 (
#1535
0&
#1540
b10000000 $
1&
b10000000 (
#1545
0&
#1550
b10000001 $
1&
b10000001 (
#1555
0&
#1560
b10000010 $
1&
b10000010 (
#1565
0&
#1570
b10000011 $
1&
b10000011 (
#1575
0&
#1580
b10000100 $
1&
b10000100 (
#1585
0&
#1590
b10000101 $
1&
b10000101 (
#1595
0&
#1600
b10000110 $
1&
b10000110 (
#1605
0&
#1610
b10000111 $
1&
b10000111 (
#1615
0&
#1620
b10001000 $
1&
b10001000 (
#1625
0&
#1630
b10001001 $
1&
b10001001 (
#1635
0&
#1640
b10001010 $
1&
b10001010 (
#1645
0&
#1650
b10001011 $
1&
b10001011 (
#1655
0&
#1660
b10001100 $
1&
b10001100 (
#1665
0&
#1670
b10001101 $
1&
b10001101 (
#1675
0&
#1680
b10001110 $
1&
b10001110 (
#1685
0&
#1690
b10001111 $
1&
b10001111 (
#1695
0&
#1700
b10010000 $
1&
b10010000 (
#1705
0&
#1710
b10010001 $
1&
b10010001 (
#1715
0&
#1720
b10010010 $
1&
b10010010 (
#1725
0&
#1730
b10010011 $
1&
b10010011 (
#1735
0&
#1740
b10010100 $
1&
b10010100 (
#1745
0&
#1750
b10010101 $
1&
b10010101 (
#1755
0&
#1760
b10010110 $
1&
b10010110 (
#1765
0&
#1770
b10010111 $
1&
b10010111 (
#1775
0&
#1780
b10011000 $
1&
b10011000 (
#1785
0&
#1790
b10011001 $
1&
b10011001 (
#1795
0&
#1800
b10011010 $
1&
b10011010 (
#1805
0&
#1810
b10011011 $
1&
b10011011 (
#1815
0&
#1820
b10011100 $
1&
b10011100 (
#1825
0&
#1830
b10011101 $
1&
b10011101 (
#1835
0&
#1840
b10011110 $
1&
b10011110 (
#1845
0&
#1850
b10011111 $
1&
b10011111 (
#1855
0&
#1860
b10100000 $
1&
b10100000 (
#1865
0&
#1870
b10100001 $
1&
b10100001 (
#1875
0&
#1880
b10100010 $
1&
b10100010 (
#1885
0&
#1890
b10100011 $
1&
b10100011 (
#1895
0&
#1900
b10100100 $
1&
b10100100 (
#1905
0&
#1910
b10100101 $
1&
b10100101 (
#1915
0&
#1920
b10100110 $
1&
b10100110 (
#1925
0&
#1930
b10100111 $
1&
b10100111 (
#1935
0&
#1940
b10101000 $
1&
b10101000 (
#1945
0&
#1950
b10101001 $
1&
b10101001 (
#1955
0&
#1960
b10101010 $
1&
b10101010 (
#1965
0&
#1970
b10101011 $
1&
b10101011 (
#1975
0&
#1980
b10101100 $
1&
b10101100 (
#1985
0&
#1990
b10101101 $
1&
b10101101 (
#1995
0&
#2000
b10101110 $
1&
b10101110 (
#2005
0&
#2010
b10101111 $
1&
b10101111 (
#2015
0&
#2020
b10110000 $
1&
b10110000 (
#2025
0&
#2030
b10110001 $
1&
b10110001 (
#2035
0&
#2040
b10110010 $
1&
b10110010 (
#2045
0&
#2050
b10110011 $
1&
b10110011 (
#2055
0&
#2060
b10110100 $
1&
b10110100 (
#2065
0&
#2070
b10110101 $
1&
b10110101 (
#2075
0&
#2080
b10110110 $
1&
b10110110 (
#2085
0&
#2090
b10110111 $
1&
b10110111 (
#2095
0&
#2100
b10111000 $
1&
b10111000 (
#2105
0&
#2110
b10111001 $
1&
b10111001 (
#2115
0&
#2120
b10111010 $
1&
b10111010 (
#2125
0&
#2130
b10111011 $
1&
b10111011 (
#2135
0&
#2140
b10111100 $
1&
b10111100 (
#2145
0&
#2150
b10111101 $
1&
b10111101 (
#2155
0&
#2160
b10111110 $
1&
b10111110 (
#2165
0&
#2170
b10111111 $
1&
b10111111 (
#2175
0&
#2180
b11000000 $
1&
b11000000 (
#2185
0&
#2190
b11000001 $
1&
b11000001 (
#2195
0&
#2200
b11000010 $
1&
b11000010 (
#2205
0&
#2210
b11000011 $
1&
b11000011 (
#2215
0&
#2220
b11000100 $
1&
b11000100 (
#2225
0&
#2230
b11000101 $
1&
b11000101 (
#2235
0&
#2240
b11000110 $
1&
b11000110 (
#2245
0&
#2250
b11000111 $
1&
b11000111 (
#2255
0&
#2260
b11001000 $
1&
b11001000 (
#2265
0&
#2270
b11001001 $
1&
b11001001 (
#2275
0&
#2280
b11001010 $
1&
b11001010 (
#2285
0&
#2290
b11001011 $
1&
b11001011 (
#2295
0&
#2300
b11001100 $
1&
b11001100 (
#2305
0&
#2310
b11001101 $
1&
b11001101 (
#2315
0&
#2320
b11001110 $
1&
b11001110 (
#2325
0&
#2330
b11001111 $
1&
b11001111 (
#2335
0&
#2340
b11010000 $
1&
b11010000 (
#2345
0&
#2350
b11010001 $
1&
b11010001 (
#2355
0&
#2360
b11010010 $
1&
b11010010 (
#2365
0&
#2370
b11010011 $
1&
b11010011 (
#2375
0&
#2380
b11010100 $
1&
b11010100 (
#2385
0&
#2390
b11010101 $
1&
b11010101 (
#2395
0&
#2400
b11010110 $
1&
b11010110 (
#2405
0&
#2410
b11010111 $
1&
b11010111 (
#2415
0&
#2420
b11011000 $
1&
b11011000 (
#2425
0&
#2430
b11011001 $
1&
b11011001 (
#2435
0&
#2440
b11011010 $
1&
b11011010 (
#2445
0&
#2450
b11011011 $
1&
b11011011 (
#2455
0&
#2460
b11011100 $
1&
b11011100 (
#2465
0&
#2470
b11011101 $
1&
b11011101 (
#2475
0&
#2480
b11011110 $
1&
b11011110 (
#2485
0&
#2490
b11011111 $
1&
b11011111 (
#2495
0&
#2500
b11100000 $
1&
b11100000 (
#2505
0&
#2510
b11100001 $
1&
b11100001 (
#2515
0&
#2520
b11100010 $
1&
b11100010 (
#2525
0&
#2530
b11100011 $
1&
b11100011 (
#2535
0&
#2540
b11100100 $
1&
b11100100 (
#2545
0&
#2550
b11100101 $
1&
b11100101 (
#2555
0&
#2560
b11100110 $
1&
b11100110 (
#2565
0&
#2570
b11100111 $
1&
b11100111 (
#2575
0&
#2580
b11101000 $
1&
b11101000 (
#2585
0&
#2590
b11101001 $
1&
b11101001 (
#2595
0&
#2600
b11101010 $
1&
b11101010 (
#2605
0&
#2610
b11101011 $
1&
b11101011 (
#2615
0&
#2620
b11101100 $
1&
b11101100 (
#2625
0&
#2630
b11101101 $
1&
b11101101 (
#2635
0&
#2640
b11101110 $
1&
b11101110 (
#2645
0&
#2650
b11101111 $
1&
b11101111 (
#2655
0&
#2660
b11110000 $
1&
b11110000 (
#2665
0&
#2670
b11110001 $
1&
b11110001 (
#2675
0&
#2680
b11110010 $
1&
b11110010 (
#2685
0&
#2690
b11110011 $
1&
b11110011 (
#2695
0&
#2700
b11110100 $
1&
b11110100 (
#2705
0&
#2710
b11110101 $
1&
b11110101 (
#2715
0&
#2720
b11110110 $
1&
b11110110 (
#2725
0&
#2730
b11110111 $
1&
b11110111 (
#2735
0&
#2740
b11111000 $
1&
b11111000 (
#2745
0&
#2750
b11111001 $
1&
b11111001 (
#2755
0&
#2760
b11111010 $
1&
b11111010 (
#2765
0&
#2770
b11111011 $
1&
b11111011 (
#2775
0&
#2780
b11111100 $
1&
b11111100 (
#2785
0&
#2790
b11111101 $
1&
b11111101 (
#2795
0&
#2800
b11111110 $
1&
b11111110 (
#2805
0&
#2810
b11111111 $
1&
b11111111 (
1*
#2815
0&
#2820
b00000000 $
1%
1&
b00000000 (
1)
0*
#2825
0&
#2830
b00000001 $
0%
1&
b00000001 (
0)
#2835
0&
#2840
b00000010 $
1&
b00000010 (
#2845
0&
#2850
b00000011 $
1&
b00000011 (
#2855
0&
#2860
b00000100 $
1&
b00000100 (
#2865
0&
#2870
b00000101 $
1&
b00000101 (
