test_files/complex.vcd
$date
	Sat Aug 23 13:57:28 2025
$end
$version
	NovyWave Test Generator 2.0
$end
$timescale
	1s
$end
$scope module top $end
$scope module cpu $end
$var wire 1 ! clk $end
$var wire 1 " reset $end
$var wire 32 # pc [31:0] $end
$var wire 64 $ data_bus [63:0] $end
$var wire 128 % wide_bus [127:0] $end
$var wire 8 & opcode [7:0] $end
$var reg 16 ' counter [15:0] $end
$var wire 1 ( overflow $end
$upscope $end
$scope module memory $end
$var wire 32 ) addr [31:0] $end
$var wire 8 * mem_data [7:0] $end
$var wire 1 + we $end
$var wire 1 , oe $end
$var wire 4 - nibble [3:0] $end
$var wire 256 . huge_bus [255:0] $end
$upscope $end
$scope module decoder $end
$var wire 7 / segment [6:0] $end
$var wire 12 0 control [11:0] $end
$var wire 1 1 valid $end
$var wire 24 2 rgb_data [23:0] $end
$var wire 48 3 extended [47:0] $end
$upscope $end
$scope module debug $end
$var wire 8 4 state [7:0] $end
$var wire 16 5 flags [15:0] $end
$var wire 1 6 error $end
$var wire 20 7 custom [19:0] $end
$var wire 512 8 massive_debug [511:0] $end
$upscope $end
$upscope $end
$enddefinitions $end
#0
$dumpvars
0!
1"
b00000000000000000000000000000000 #
b0000000000000000000000000000000000000000000000000000000000000000 $
b00000000000000000000000000000000000000000000000000000000000000000000000000000000000000000000000000000000000000000000000000000000 %
b00000000 &
b0000000000000000 '
0(
b00000000000000000000000000000000 )
b00000000 *
0+
0,
b0000 -
b0000000000000000000000000000000000000000000000000000000000000000000000000000000000000000000000000000000000000000000000000000000000000000000000000000000000000000000000000000000000000000000000000000000000000000000000000000000000000000000000000000000000000000 .
b0000000 /
b000000000000 0
01
b000000000000000000000000 2
b000000000000000000000000000000000000000000000000 3
b00000001 4
b0000000000000000 5
06
b00000000000000000000 7
b00000000000000000000000000000000000000000000000000000000000000000000000000000000000000000000000000000000000000000000000000000000000000000000000000000000000000000000000000000000000000000000000000000000000000000000000000000000000000000000000000000000000000000000000000000000000000000000000000000000000000000000000000000000000000000000000000000000000000000000000000000000000000000000000000000000000000000000000000000000000000000000000000000000000000000000000000000000000000000000000000000000000000000000000000000000 8
$end
#1
1!
b00000000000000000000000000000000 #
b0000000000000001 '
#2
0!
b11111111 *
1+
b1010 -
#3
1!
b00000000000000000000000000001000 #
b10101010 &
b0000000000000011 '
#4
0!
b11111111111111111111111111111111 )
0+
b0101 -
#5
1!
b00000000000000000000000000010000 #
b1111111111111111111111111111111111111111111111111111111111111111 $
b0000000000000101 '
1,
b1111 -
#6
0!
#7
1!
b00000000000000000000000000011000 #
b0000000000000111 '
#8
0!
#9
1!
b00000000000000000000000000100000 #
b0000000000001001 '
#10
0!
b11111111111111111111111111111111111111111111111111111111111111111111111111111111111111111111111111111111111111111111111111111111111111111111111111111111111111111111111111111111111111111111111111111111111111111111111111111111111111111111111111111111111111111111111111111111111111111111111111111111111111111111111111111111111111111111111111111111111111111111111111111111111111111111111111111111111111111111111111111111111111111111111111111111111111111111111111111111111111111111111111111111111111111111111111111111 8
#11
1!
b00000000000000000000000000101000 #
b0000000000001011 '
#12
0!
#13
1!
b00000000000000000000000000110000 #
b0000000000001101 '
#14
0!
#15
1!
b00000000000000000000000000111000 #
b0000000000001111 '
b00000000000000000000000000000000000000000000000000000000000000000000000000000000000000000000000000000000000000000000000000000000000000000000000000000000000000000000000000000000000000000000000000000000000000000000000000000000000000000000000000000000000000000000000000000000000000000000000000000000000000000000000000000000000000000000000000000000000000000000000000000000000000000000000000000000000000000000000000000000000000000000000000000000000000000000000000000000000000000000000000000000000000000000000000000000 8
#16
0!
#17
1!
b00000000000000000000000001000000 #
b0000000000010001 '
#18
0!
#19
1!
b00000000000000000000000001001000 #
b0000000000010011 '
#20
0!
b10101010101010101010101010101010101010101010101010101010101010101010101010101010101010101010101010101010101010101010101010101010101010101010101010101010101010101010101010101010101010101010101010101010101010101010101010101010101010101010101010101010101010101010101010101010101010101010101010101010101010101010101010101010101010101010101010101010101010101010101010101010101010101010101010101010101010101010101010101010101010101010101010101010101010101010101010101010101010101010101010101010101010101010101010101010 8
#21
1!
b00000000000000000000000001010000 #
b0000000000010101 '
#22
0!
#23
1!
b00000000000000000000000001011000 #
b0000000000010111 '
#24
0!
#25
1!
b00000000000000000000000001100000 #
b0000000000011001 '
#26
0!
#27
1!
b00000000000000000000000001101000 #
b0000000000011011 '
#28
0!
#29
1!
b00000000000000000000000001110000 #
b0000000000011101 '
#30
0!
#31
1!
b00000000000000000000000001111000 #
b0000000000011111 '
#32
0!
#33
1!
b00000000000000000000000010000000 #
b0000000000100001 '
#34
0!
#35
1!
b00000000000000000000000010001000 #
b0000000000100011 '
#36
0!
#37
1!
b00000000000000000000000010010000 #
b0000000000100101 '
#38
0!
#39
1!
b00000000000000000000000010011000 #
b0000000000100111 '
#40
0!
#41
1!
b00000000000000000000000010100000 #
b0000000000101001 '
#42
0!
#43
1!
b00000000000000000000000010101000 #
b0000000000101011 '
#44
0!
#45
1!
b00000000000000000000000010110000 #
b0000000000101101 '
#46
0!
#47
1!
b00000000000000000000000010111000 #
b0000000000101111 '
#48
0!
#49
1!
b00000000000000000000000011000000 #
b0000000000110001 '