test_files/protocol_test.vcd
$date
	Sat Aug 23 13:57:28 2025
$end
$version
	NovyWave Test Generator 2.0
$end
$timescale
	1ns
$end
$scope module protocols $end
$scope module i2c $end
$var wire 1 ! sda $end
$var wire 1 " scl $end
$upscope $end
$scope module spi $end
$var wire 1 # mosi $end
$var wire 1 $ miso $end
$var wire 1 % sclk $end
$var wire 1 & cs $end
$upscope $end
$scope module uart $end
$var wire 1 ' tx $end
$var wire 1 ( rx $end
$upscope $end
$scope module memory $end
$var wire 32 ) address [31:0] $end
$var wire 64 * data [63:0] $end
$var wire 1 + write_enable $end
$var wire 1 , read_enable $end
$upscope $end
$scope module axi $end
$var wire 32 - awaddr [31:0] $end
$var wire 64 . wdata [63:0] $end
$var wire 8 / wstrb [7:0] $end
$var wire 1 0 awvalid $end
$var wire 1 1 awready $end
$upscope $end
$upscope $end
$enddefinitions $end
#0
$dumpvars
1!
1"
1&
1'
b10000000000000000000000000000000 )
b0100101101011001010001011001011110000100111111111010110010110010 *
1+
0,
$end
#100
0!
0"
#200
0!
1"
#300
1!
0"
#400
0!
1"
#500
0!
0"
b10000000000000000000011111010000 )
b0011110101011101010000000011110110100100011010000101101111111110 *
0+
1,
#600
1!
1"
#700
0!
0"
#800
0!
1"
#900
1!
0"
#1000
0!
1"
1#
1$
1%
0&
b10000000000000000000111110100000 )
b1011110010000101000000000110000110010001111100111101110101101001 *
1+
0,
#1050
1#
0$
0%
#1100
0#
1$
1%
#1150
1#
0$
0%
#1200
1#
0$
1%
#1250
0#
0$
0%
#1300
0#
1$
1%
#1350
0#
0$
0%
#1400
0#
1$
1%
#1450
1#
1$
0%
#1500
1#
1$
1%
b10000000000000000001011101110000 )
b1001000011110000000111100001110100101110100101101110000100100001 *
0+
1,
#1550
1#
1$
0%
#1600
1#
0$
1%
#1650
0#
0$
0%
#1700
0#
1$
1%
#1750
1#
1$
0%
#1800
1#
1$
1%
#1850
1#
0$
0%
#1900
0#
1$
1%
#1950
1#
0$
0%
#2000
1&
b10000000000000000001111101000000 )
b0010001000111000110101001101111001001000100001100001001100011000 *
1+
0,
#2500
b10000000000000000010011100010000 )
b1011101111100110110001000110100101100011001010110001000000100001 *
0+
1,
#3000
0'
b10000000000000000010111011100000 )
b0001110100100001101011001101110001110011001111000011000101001101 *
1+
0,
#3100
1'
#3200
0'
#3300
1'
#3400
0'
#3500
1'
b10000000000000000011011010110000 )
b0110110000100011000101010001110000010101111011111100011111010111 *
0+
1,
#3600
1'
#3700
0'
#3800
0'
#3900
1'
#4000
b10000000000000000011111010000000 )
b1000011111001110000100000010010100111010000100001010100011110101 *
1+
0,
#4500
b10000000000000000100011001010000 )
b0011101101011011111000111010110111001100100010111001110001110101 *
0+
1,
#5000
b10000000000000000100111000100000 )
b0111110001001101100000101101010110111111011001001100010101111010 *
1+
0,
00
11
#5100
b11011110101011011011111011101111 -
10
#5200
b0001001000110100010101100111100010011010101111001101111011110000 .
b11111111 /
#5300
00
#5500
b10000000000000000101010111110000 )
b0110011001100000110000000001001011111001011000101111101001000001 *
0+
1,
#6000
b10000000000000000101110111000000 )
b1011011001100011111001010001011010111001011110010111011110010000 *
1+
0,
#6500
b10000000000000000110010110010000 )
b0110110000011001111010001101101000110000001110100011110101001110 *
0+
1,
#7000
b10000000000000000110110101100000 )
b1110101000010111001011011010101101010001110000101001000110000111 *
1+
0,
#7500
b10000000000000000111010100110000 )
b0110111110010001101101100001111101000100100100100100001100100100 *
0+
1,
#8000
b10000000000000000111110100000000 )
b0001101011011001001000010111100011111100110101100000110110110011 *
1+
0,
#8500
b10000000000000001000010011010000 )
b0001010101010011010101111001111100011001011100000001010010110001 *
0+
1,
#9000
b10000000000000001000110010100000 )
b0101101010011111010000010100010100010100000000001010111000001011 *
1+
0,
#9500
b10000000000000001001010001110000 )
b1011010010001101101101101011001011100111010010001011111001010001 *
0+
1,