test_files/stress_test.vcd
$date
	Sat Aug 23 13:57:28 2025
$end
$version
	NovyWave Test Generator 2.0
$end
$timescale
	1ns
$end
$scope module stress_test $end
$scope module rapid_changes $end
$var wire 1 ! toggle_fast $end
$var wire 8 " byte_pattern [7:0] $end
$var wire 16 # word_counter [15:0] $end
$var wire 32 $ random_data [31:0] $end
$upscope $end
$scope module edge_cases $end
$var wire 1 % x_state $end
$var wire 1 & z_state $end
$var wire 8 ' unknown_byte [7:0] $end
$var wire 4 ( mixed_states [3:0] $end
$upscope $end
$scope module long_values $end
$var wire 1024 ) kilobit_bus [1023:0] $end
$var wire 2048 * two_kilobit [2047:0] $end
$upscope $end
$scope module strings $end
$var wire 64 + ascii_text [63:0] $end
$var wire 32 , status_code [31:0] $end
$upscope $end
$upscope $end
$enddefinitions $end
#0
$dumpvars
0!
b00000000 "
b0000000000000000 #
b00000000000000000000000000000000 $
0%
0&
b00000000 '
b0000 (
b0000000000000000000000000000000000000000000000000000000000000000000000000000000000000000000000000000000000000000000000000000000000000000000000000000000000000000000000000000000000000000000000000000000000000000000000000000000000000000000000000000000000000000000000000000000000000000000000000000000000000000000000000000000000000000000000000000000000000000000000000000000000000000000000000000000000000000000000000000000000000000000000000000000000000000000000000000000000000000000000000000000000000000000000000000000000000000000000000000000000000000000000000000000000000000000000000000000000000000000000000000000000000000000000000000000000000000000000000000000000000000000000000000000000000000000000000000000000000000000000000000000000000000000000000000000000000000000000000000000000000000000000000000000000000000000000000000000000000000000000000000000000000000000000000000000000000000000000000000000000000000000000000000000000000000000000000000000000000000000000000000000000000000000000000000000000000000000000000000000000000000 )
b00000000000000000000000000000000000000000000000000000000000000000000000000000000000000000000000000000000000000000000000000000000000000000000000000000000000000000000000000000000000000000000000000000000000000000000000000000000000000000000000000000000000000000000000000000000000000000000000000000000000000000000000000000000000000000000000000000000000000000000000000000000000000000000000000000000000000000000000000000000000000000000000000000000000000000000000000000000000000000000000000000000000000000000000000000000000000000000000000000000000000000000000000000000000000000000000000000000000000000000000000000000000000000000000000000000000000000000000000000000000000000000000000000000000000000000000000000000000000000000000000000000000000000000000000000000000000000000000000000000000000000000000000000000000000000000000000000000000000000000000000000000000000000000000000000000000000000000000000000000000000000000000000000000000000000000000000000000000000000000000000000000000000000000000000000000000000000000000000000000000000000000000000000000000000000000000000000000000000000000000000000000000000000000000000000000000000000000000000000000000000000000000000000000000000000000000000000000000000000000000000000000000000000000000000000000000000000000000000000000000000000000000000000000000000000000000000000000000000000000000000000000000000000000000000000000000000000000000000000000000000000000000000000000000000000000000000000000000000000000000000000000000000000000000000000000000000000000000000000000000000000000000000000000000000000000000000000000000000000000000000000000000000000000000000000000000000000000000000000000000000000000000000000000000000000000000000000000000000000000000000000000000000000000000000000000000000000000000000000000000000000000000000000000000000000000000000000000000000000000000000000000000000000000000000000000000000000000000000000000000000000000000000000000000000000000000000000000000000000000000000000000000000000000000000000000000000000000000000000000000000000000000000000000000000000000000000000000000000000000000000000000 *
b0100100001100101011011000110110001101111000000000000000000000000 +
b01001111010010110100000100011001 ,
$end
#1000
1!
b11111001 "
b0000000000000001 #
b11111100001011011100110010111101 $
#2000
0!
b11110111 "
b0000000000000010 #
b01011010111100111110011011111101 $
#3000
1!
b01010001 "
b0000000000000011 #
b01010000100101011110000001000111 $
#4000
0!
b00111000 "
b0000000000000100 #
b10111001110101011010110000111010 $
#5000
1!
b01100000 "
b0000000000000101 #
b10101010101010001001111111010101 $
1%
1&
b00001111 '
b1010 (
#6000
0!
b10001000 "
b0000000000000110 #
b11000010010101100010000000100101 $
#7000
1!
b10011110 "
b0000000000000111 #
b01101001111011010001011111110010 $
#8000
0!
b00101101 "
b0000000000001000 #
b10001000001010001100001101011100 $
#9000
1!
b11000111 "
b0000000000001001 #
b10001100001111010011010011111010 $