examples/amaranth/counter/counter.vcd
$comment Generated by Amaranth $end
$date 2025-11-28 11:12:25.956087 $end
$timescale 1 fs $end
$scope module bench $end
$scope module top $end
$var wire 1 ! clk $end
$var wire 1 " rst $end
$var wire 1 # enable $end
$var wire 8 $ count $end
$var wire 1 % overflow $end
$upscope $end
$upscope $end
$enddefinitions $end
#0
$dumpvars
0!
0"
0#
b0 $
0%
$end
#5000000
1!
#10000000
0!
#15000000
1!
#20000000
0!
#25000000
1!
#30000000
0!
#35000000
1!
#40000000
0!
#45000000
1!
1#
#50000000
0!
#55000000
1!
b1 $
#60000000
0!
#65000000
1!
b10 $
#70000000
0!
#75000000
1!
b11 $
#80000000
0!
#85000000
1!
b100 $
#90000000
0!
#95000000
1!
b101 $
#100000000
0!
#105000000
1!
b110 $
#110000000
0!
#115000000
1!
b111 $
#120000000
0!
#125000000
1!
b1000 $
#130000000
0!
#135000000
1!
b1001 $
#140000000
0!
#145000000
1!
b1010 $
#150000000
0!
#155000000
1!
b1011 $
#160000000
0!
#165000000
1!
b1100 $
#170000000
0!
#175000000
1!
b1101 $
#180000000
0!
#185000000
1!
b1110 $
#190000000
0!
#195000000
1!
b1111 $
#200000000
0!
#205000000
1!
b10000 $
#210000000
0!
#215000000
1!
b10001 $
#220000000
0!
#225000000
1!
b10010 $
#230000000
0!
#235000000
1!
b10011 $
#240000000
0!
#245000000
1!
b10100 $
0#
#250000000
0!
#255000000
1!
#260000000
0!
#265000000
1!
#270000000
0!
#275000000
1!
#280000000
0!
#285000000
1!
#290000000
0!
#295000000
1!
1#
#300000000
0!
#305000000
1!
b10101 $
#310000000
0!
#315000000
1!
b10110 $
#320000000
0!
#325000000
1!
b10111 $
#330000000
0!
#335000000
1!
b11000 $
#340000000
0!
#345000000
1!
b11001 $
#350000000
0!
#355000000
1!
b11010 $
#360000000
0!
#365000000
1!
b11011 $
#370000000
0!
#375000000
1!
b11100 $
#380000000
0!
#385000000
1!
b11101 $
#390000000
0!
#395000000
1!
b11110 $
#400000000
0!
#405000000
1!
b11111 $
#410000000
0!
#415000000
1!
b100000 $
#420000000
0!
#425000000
1!
b100001 $
#430000000
0!
#435000000
1!
b100010 $
#440000000
0!
#445000000
1!
b100011 $
#450000000
0!
#455000000
1!
b100100 $
#460000000
0!
#465000000
1!
b100101 $
#470000000
0!
#475000000
1!
b100110 $
#480000000
0!
#485000000
1!
b100111 $
#490000000
0!
#495000000
1!
b101000 $
#500000000
0!
#505000000
1!
b101001 $
#510000000
0!
#515000000
1!
b101010 $
#520000000
0!
#525000000
1!
b101011 $
#530000000
0!
#535000000
1!
b101100 $
#540000000
0!
#545000000
1!
b101101 $
#550000000
0!
#555000000
1!
b101110 $
#560000000
0!
#565000000
1!
b101111 $
#570000000
0!
#575000000
1!
b110000 $
#580000000
0!
#585000000
1!
b110001 $
#590000000
0!
#595000000
1!
b110010 $
#600000000
0!
#605000000
1!
b110011 $
#610000000
0!
#615000000
1!
b110100 $
#620000000
0!
#625000000
1!
b110101 $
#630000000
0!
#635000000
1!
b110110 $
#640000000
0!
#645000000
1!
b110111 $
#650000000
0!
#655000000
1!
b111000 $
#660000000
0!
#665000000
1!
b111001 $
#670000000
0!
#675000000
1!
b111010 $
#680000000
0!
#685000000
1!
b111011 $
#690000000
0!
#695000000
1!
b111100 $
#700000000
0!
#705000000
1!
b111101 $
#710000000
0!
#715000000
1!
b111110 $
#720000000
0!
#725000000
1!
b111111 $
#730000000
0!
#735000000
1!
b1000000 $
#740000000
0!
#745000000
1!
b1000001 $
#750000000
0!
#755000000
1!
b1000010 $
#760000000
0!
#765000000
1!
b1000011 $
#770000000
0!
#775000000
1!
b1000100 $
#780000000
0!
#785000000
1!
b1000101 $
#790000000
0!
#795000000
1!
b1000110 $
#800000000
0!
#805000000
1!
b1000111 $
#810000000
0!
#815000000
1!
b1001000 $
#820000000
0!
#825000000
1!
b1001001 $
#830000000
0!
#835000000
1!
b1001010 $
#840000000
0!
#845000000
1!
b1001011 $
#850000000
0!
#855000000
1!
b1001100 $
#860000000
0!
#865000000
1!
b1001101 $
#870000000
0!
#875000000
1!
b1001110 $
#880000000
0!
#885000000
1!
b1001111 $
#890000000
0!
#895000000
1!
b1010000 $
#900000000
0!
#905000000
1!
b1010001 $
#910000000
0!
#915000000
1!
b1010010 $
#920000000
0!
#925000000
1!
b1010011 $
#930000000
0!
#935000000
1!
b1010100 $
#940000000
0!
#945000000
1!
b1010101 $
#950000000
0!
#955000000
1!
b1010110 $
#960000000
0!
#965000000
1!
b1010111 $
#970000000
0!
#975000000
1!
b1011000 $
#980000000
0!
#985000000
1!
b1011001 $
#990000000
0!
#995000000
1!
b1011010 $
#1000000000
0!
#1005000000
1!
b1011011 $
#1010000000
0!
#1015000000
1!
b1011100 $
#1020000000
0!
#1025000000
1!
b1011101 $
#1030000000
0!
#1035000000
1!
b1011110 $
#1040000000
0!
#1045000000
1!
b1011111 $
#1050000000
0!
#1055000000
1!
b1100000 $
#1060000000
0!
#1065000000
1!
b1100001 $
#1070000000
0!
#1075000000
1!
b1100010 $
#1080000000
0!
#1085000000
1!
b1100011 $
#1090000000
0!
#1095000000
1!
b1100100 $
#1100000000
0!
#1105000000
1!
b1100101 $
#1110000000
0!
#1115000000
1!
b1100110 $
#1120000000
0!
#1125000000
1!
b1100111 $
#1130000000
0!
#1135000000
1!
b1101000 $
#1140000000
0!
#1145000000
1!
b1101001 $
#1150000000
0!
#1155000000
1!
b1101010 $
#1160000000
0!
#1165000000
1!
b1101011 $
#1170000000
0!
#1175000000
1!
b1101100 $
#1180000000
0!
#1185000000
1!
b1101101 $
#1190000000
0!
#1195000000
1!
b1101110 $
#1200000000
0!
#1205000000
1!
b1101111 $
#1210000000
0!
#1215000000
1!
b1110000 $
#1220000000
0!
#1225000000
1!
b1110001 $
#1230000000
0!
#1235000000
1!
b1110010 $
#1240000000
0!
#1245000000
1!
b1110011 $
#1250000000
0!
#1255000000
1!
b1110100 $
#1260000000
0!
#1265000000
1!
b1110101 $
#1270000000
0!
#1275000000
1!
b1110110 $
#1280000000
0!
#1285000000
1!
b1110111 $
#1290000000
0!
#1295000000
1!
b1111000 $
#1300000000
0!
#1305000000
1!
b1111001 $
#1310000000
0!
#1315000000
1!
b1111010 $
#1320000000
0!
#1325000000
1!
b1111011 $
#1330000000
0!
#1335000000
1!
b1111100 $
#1340000000
0!
#1345000000
1!
b1111101 $
#1350000000
0!
#1355000000
1!
b1111110 $
#1360000000
0!
#1365000000
1!
b1111111 $
#1370000000
0!
#1375000000
1!
b10000000 $
#1380000000
0!
#1385000000
1!
b10000001 $
#1390000000
0!
#1395000000
1!
b10000010 $
#1400000000
0!
#1405000000
1!
b10000011 $
#1410000000
0!
#1415000000
1!
b10000100 $
#1420000000
0!
#1425000000
1!
b10000101 $
#1430000000
0!
#1435000000
1!
b10000110 $
#1440000000
0!
#1445000000
1!
b10000111 $
#1450000000
0!
#1455000000
1!
b10001000 $
#1460000000
0!
#1465000000
1!
b10001001 $
#1470000000
0!
#1475000000
1!
b10001010 $
#1480000000
0!
#1485000000
1!
b10001011 $
#1490000000
0!
#1495000000
1!
b10001100 $
#1500000000
0!
#1505000000
1!
b10001101 $
#1510000000
0!
#1515000000
1!
b10001110 $
#1520000000
0!
#1525000000
1!
b10001111 $
#1530000000
0!
#1535000000
1!
b10010000 $
#1540000000
0!
#1545000000
1!
b10010001 $
#1550000000
0!
#1555000000
1!
b10010010 $
#1560000000
0!
#1565000000
1!
b10010011 $
#1570000000
0!
#1575000000
1!
b10010100 $
#1580000000
0!
#1585000000
1!
b10010101 $
#1590000000
0!
#1595000000
1!
b10010110 $
#1600000000
0!
#1605000000
1!
b10010111 $
#1610000000
0!
#1615000000
1!
b10011000 $
#1620000000
0!
#1625000000
1!
b10011001 $
#1630000000
0!
#1635000000
1!
b10011010 $
#1640000000
0!
#1645000000
1!
b10011011 $
#1650000000
0!
#1655000000
1!
b10011100 $
#1660000000
0!
#1665000000
1!
b10011101 $
#1670000000
0!
#1675000000
1!
b10011110 $
#1680000000
0!
#1685000000
1!
b10011111 $
#1690000000
0!
#1695000000
1!
b10100000 $
#1700000000
0!
#1705000000
1!
b10100001 $
#1710000000
0!
#1715000000
1!
b10100010 $
#1720000000
0!
#1725000000
1!
b10100011 $
#1730000000
0!
#1735000000
1!
b10100100 $
#1740000000
0!
#1745000000
1!
b10100101 $
#1750000000
0!
#1755000000
1!
b10100110 $
#1760000000
0!
#1765000000
1!
b10100111 $
#1770000000
0!
#1775000000
1!
b10101000 $
#1780000000
0!
#1785000000
1!
b10101001 $
#1790000000
0!
#1795000000
1!
b10101010 $
#1800000000
0!
#1805000000
1!
b10101011 $
#1810000000
0!
#1815000000
1!
b10101100 $
#1820000000
0!
#1825000000
1!
b10101101 $
#1830000000
0!
#1835000000
1!
b10101110 $
#1840000000
0!
#1845000000
1!
b10101111 $
#1850000000
0!
#1855000000
1!
b10110000 $
#1860000000
0!
#1865000000
1!
b10110001 $
#1870000000
0!
#1875000000
1!
b10110010 $
#1880000000
0!
#1885000000
1!
b10110011 $
#1890000000
0!
#1895000000
1!
b10110100 $
#1900000000
0!
#1905000000
1!
b10110101 $
#1910000000
0!
#1915000000
1!
b10110110 $
#1920000000
0!
#1925000000
1!
b10110111 $
#1930000000
0!
#1935000000
1!
b10111000 $
#1940000000
0!
#1945000000
1!
b10111001 $
#1950000000
0!
#1955000000
1!
b10111010 $
#1960000000
0!
#1965000000
1!
b10111011 $
#1970000000
0!
#1975000000
1!
b10111100 $
#1980000000
0!
#1985000000
1!
b10111101 $
#1990000000
0!
#1995000000
1!
b10111110 $
#2000000000
0!
#2005000000
1!
b10111111 $
#2010000000
0!
#2015000000
1!
b11000000 $
#2020000000
0!
#2025000000
1!
b11000001 $
#2030000000
0!
#2035000000
1!
b11000010 $
#2040000000
0!
#2045000000
1!
b11000011 $
#2050000000
0!
#2055000000
1!
b11000100 $
#2060000000
0!
#2065000000
1!
b11000101 $
#2070000000
0!
#2075000000
1!
b11000110 $
#2080000000
0!
#2085000000
1!
b11000111 $
#2090000000
0!
#2095000000
1!
b11001000 $
#2100000000
0!
#2105000000
1!
b11001001 $
#2110000000
0!
#2115000000
1!
b11001010 $
#2120000000
0!
#2125000000
1!
b11001011 $
#2130000000
0!
#2135000000
1!
b11001100 $
#2140000000
0!
#2145000000
1!
b11001101 $
#2150000000
0!
#2155000000
1!
b11001110 $
#2160000000
0!
#2165000000
1!
b11001111 $
#2170000000
0!
#2175000000
1!
b11010000 $
#2180000000
0!
#2185000000
1!
b11010001 $
#2190000000
0!
#2195000000
1!
b11010010 $
#2200000000
0!
#2205000000
1!
b11010011 $
#2210000000
0!
#2215000000
1!
b11010100 $
#2220000000
0!
#2225000000
1!
b11010101 $
#2230000000
0!
#2235000000
1!
b11010110 $
#2240000000
0!
#2245000000
1!
b11010111 $
#2250000000
0!
#2255000000
1!
b11011000 $
#2260000000
0!
#2265000000
1!
b11011001 $
#2270000000
0!
#2275000000
1!
b11011010 $
#2280000000
0!
#2285000000
1!
b11011011 $
#2290000000
0!
#2295000000
1!
b11011100 $
#2300000000
0!
#2305000000
1!
b11011101 $
#2310000000
0!
#2315000000
1!
b11011110 $
#2320000000
0!
#2325000000
1!
b11011111 $
#2330000000
0!
#2335000000
1!
b11100000 $
#2340000000
0!
#2345000000
1!
b11100001 $
#2350000000
0!
#2355000000
1!
b11100010 $
#2360000000
0!
#2365000000
1!
b11100011 $
#2370000000
0!
#2375000000
1!
b11100100 $
#2380000000
0!
#2385000000
1!
b11100101 $
#2390000000
0!
#2395000000
1!
b11100110 $
#2400000000
0!
#2405000000
1!
b11100111 $
#2410000000
0!
#2415000000
1!
b11101000 $
#2420000000
0!
#2425000000
1!
b11101001 $
#2430000000
0!
#2435000000
1!
b11101010 $
#2440000000
0!
#2445000000
1!
b11101011 $
#2450000000
0!
#2455000000
1!
b11101100 $
#2460000000
0!
#2465000000
1!
b11101101 $
#2470000000
0!
#2475000000
1!
b11101110 $
#2480000000
0!
#2485000000
1!
b11101111 $
#2490000000
0!
#2495000000
1!
b11110000 $
#2500000000
0!
#2505000000
1!
b11110001 $
#2510000000
0!
#2515000000
1!
b11110010 $
#2520000000
0!
#2525000000
1!
b11110011 $
#2530000000
0!
#2535000000
1!
b11110100 $
#2540000000
0!
#2545000000
1!
b11110101 $
#2550000000
0!
#2555000000
1!
b11110110 $
#2560000000
0!
#2565000000
1!
b11110111 $
#2570000000
0!
#2575000000
1!
b11111000 $
#2580000000
0!
#2585000000
1!
b11111001 $
#2590000000
0!
#2595000000
1!
b11111010 $
#2600000000
0!
#2605000000
1!
b11111011 $
#2610000000
0!
#2615000000
1!
b11111100 $
#2620000000
0!
#2625000000
1!
b11111101 $
#2630000000
0!
#2635000000
1!
b11111110 $
#2640000000
0!
#2645000000
1!
b11111111 $
#2650000000
0!
#2655000000
1!
1%
b0 $
#2660000000
0!
#2665000000
1!
0%
b1 $
#2670000000
0!
#2675000000
1!
b10 $
#2680000000
0!
#2685000000
1!
b11 $
#2690000000
0!
#2695000000
1!
b100 $
#2700000000
0!
#2705000000
1!
b101 $
#2710000000
0!
#2715000000
1!
b110 $
#2720000000
0!
#2725000000
1!
b111 $
#2730000000
0!
#2735000000
1!
b1000 $
#2740000000
0!
#2745000000
1!
b1001 $
#2750000000
0!
#2755000000
1!
b1010 $
